mca_grp1,2011-09-28 01:00:00,tarfile/13103.tar.gz,13103.tar.gz,okay,pending,null
mtech_grp1,2011-09-28 01:00:00,tarfile/ppspcTest.tar.gz,ppspcTest.tar.gz,okay,pending,null
mtech_grp2,2011-09-28 01:00:00,tarfile/AiP.tar.gz,AiP.tar.gz,okay,pending,null
mtech_grp3,2011-09-28 01:00:00,tarfile/image1.tar.gz,image1.tar.gz,okay,pending,null
mca_grp2,2011-09-28 01:00:00,tarfile/image.tar.gz,image.tar.gz,okay,pending,null
mca_grp3,2011-09-28 01:00:00,tarfile/abyeti.tar.gz,abyeti.tar.gz,okay,pending,null
